%YAML 1.1
%TAG !u! tag:unity3d.com,2011:
--- !u!74 &7400000
AnimationClip:
  m_ObjectHideFlags: 0
  m_CorrespondingSourceObject: {fileID: 0}
  m_PrefabInstance: {fileID: 0}
  m_PrefabAsset: {fileID: 0}
  m_Name: Linda animation
  serializedVersion: 6
  m_Legacy: 0
  m_Compressed: 0
  m_UseHighQualityCurve: 1
  m_RotationCurves: []
  m_CompressedRotationCurves: []
  m_EulerCurves: []
  m_PositionCurves: []
  m_ScaleCurves: []
  m_FloatCurves: []
  m_PPtrCurves:
  - curve:
    - time: 0
      value: {fileID: 21300000, guid: e406c0037c4ed014f88bdaaec5d8059e, type: 3}
    - time: 0.5
      value: {fileID: 21300000, guid: c3e04db5f1a1d57448f9913920c2351e, type: 3}
    - time: 1
      value: {fileID: 21300000, guid: b207eeac28259844792c78ab4d87725d, type: 3}
    - time: 1.5
      value: {fileID: 21300000, guid: 68ac571bc662014469cd6ea22771ef7e, type: 3}
    - time: 2
      value: {fileID: 21300000, guid: b207eeac28259844792c78ab4d87725d, type: 3}
    - time: 2.5
      value: {fileID: 21300000, guid: c3e04db5f1a1d57448f9913920c2351e, type: 3}
    - time: 3
      value: {fileID: 21300000, guid: e406c0037c4ed014f88bdaaec5d8059e, type: 3}
    attribute: m_Sprite
    path: 
    classID: 212
    script: {fileID: 0}
  m_SampleRate: 24
  m_WrapMode: 0
  m_Bounds:
    m_Center: {x: 0, y: 0, z: 0}
    m_Extent: {x: 0, y: 0, z: 0}
  m_ClipBindingConstant:
    genericBindings:
    - serializedVersion: 2
      path: 0
      attribute: 0
      script: {fileID: 0}
      typeID: 212
      customType: 23
      isPPtrCurve: 1
    pptrCurveMapping:
    - {fileID: 21300000, guid: e406c0037c4ed014f88bdaaec5d8059e, type: 3}
    - {fileID: 21300000, guid: c3e04db5f1a1d57448f9913920c2351e, type: 3}
    - {fileID: 21300000, guid: b207eeac28259844792c78ab4d87725d, type: 3}
    - {fileID: 21300000, guid: 68ac571bc662014469cd6ea22771ef7e, type: 3}
    - {fileID: 21300000, guid: b207eeac28259844792c78ab4d87725d, type: 3}
    - {fileID: 21300000, guid: c3e04db5f1a1d57448f9913920c2351e, type: 3}
    - {fileID: 21300000, guid: e406c0037c4ed014f88bdaaec5d8059e, type: 3}
  m_AnimationClipSettings:
    serializedVersion: 2
    m_AdditiveReferencePoseClip: {fileID: 0}
    m_AdditiveReferencePoseTime: 0
    m_StartTime: 0
    m_StopTime: 3.0416667
    m_OrientationOffsetY: 0
    m_Level: 0
    m_CycleOffset: 0
    m_HasAdditiveReferencePose: 0
    m_LoopTime: 0
    m_LoopBlend: 0
    m_LoopBlendOrientation: 0
    m_LoopBlendPositionY: 0
    m_LoopBlendPositionXZ: 0
    m_KeepOriginalOrientation: 0
    m_KeepOriginalPositionY: 1
    m_KeepOriginalPositionXZ: 0
    m_HeightFromFeet: 0
    m_Mirror: 0
  m_EditorCurves: []
  m_EulerEditorCurves: []
  m_HasGenericRootTransform: 0
  m_HasMotionFloatCurves: 0
  m_Events: []
