%YAML 1.1
%TAG !u! tag:unity3d.com,2011:
--- !u!74 &7400000
AnimationClip:
  m_ObjectHideFlags: 0
  m_CorrespondingSourceObject: {fileID: 0}
  m_PrefabInstance: {fileID: 0}
  m_PrefabAsset: {fileID: 0}
  m_Name: Thief-Walk-E
  serializedVersion: 6
  m_Legacy: 0
  m_Compressed: 0
  m_UseHighQualityCurve: 1
  m_RotationCurves: []
  m_CompressedRotationCurves: []
  m_EulerCurves: []
  m_PositionCurves: []
  m_ScaleCurves: []
  m_FloatCurves: []
  m_PPtrCurves:
  - curve:
    - time: 0
      value: {fileID: 21300000, guid: 3e40a8caf3cac17459c6f5c03cb8376e, type: 3}
    - time: 0.04
      value: {fileID: 21300000, guid: ef8903d8dfa8abd4c8a55b9feaba2034, type: 3}
    - time: 0.08
      value: {fileID: 21300000, guid: 87f2ddbdb75f18140b53931584b53e2d, type: 3}
    - time: 0.12
      value: {fileID: 21300000, guid: ef8903d8dfa8abd4c8a55b9feaba2034, type: 3}
    - time: 0.16
      value: {fileID: 21300000, guid: 3e40a8caf3cac17459c6f5c03cb8376e, type: 3}
    - time: 0.2
      value: {fileID: 21300000, guid: ef8903d8dfa8abd4c8a55b9feaba2034, type: 3}
    - time: 0.24
      value: {fileID: 21300000, guid: 87f2ddbdb75f18140b53931584b53e2d, type: 3}
    - time: 0.28
      value: {fileID: 21300000, guid: ef8903d8dfa8abd4c8a55b9feaba2034, type: 3}
    attribute: m_Sprite
    path: 
    classID: 212
    script: {fileID: 0}
  m_SampleRate: 25
  m_WrapMode: 0
  m_Bounds:
    m_Center: {x: 0, y: 0, z: 0}
    m_Extent: {x: 0, y: 0, z: 0}
  m_ClipBindingConstant:
    genericBindings:
    - serializedVersion: 2
      path: 0
      attribute: 0
      script: {fileID: 0}
      typeID: 212
      customType: 23
      isPPtrCurve: 1
    pptrCurveMapping:
    - {fileID: 21300000, guid: 3e40a8caf3cac17459c6f5c03cb8376e, type: 3}
    - {fileID: 21300000, guid: ef8903d8dfa8abd4c8a55b9feaba2034, type: 3}
    - {fileID: 21300000, guid: 87f2ddbdb75f18140b53931584b53e2d, type: 3}
    - {fileID: 21300000, guid: ef8903d8dfa8abd4c8a55b9feaba2034, type: 3}
    - {fileID: 21300000, guid: 3e40a8caf3cac17459c6f5c03cb8376e, type: 3}
    - {fileID: 21300000, guid: ef8903d8dfa8abd4c8a55b9feaba2034, type: 3}
    - {fileID: 21300000, guid: 87f2ddbdb75f18140b53931584b53e2d, type: 3}
    - {fileID: 21300000, guid: ef8903d8dfa8abd4c8a55b9feaba2034, type: 3}
  m_AnimationClipSettings:
    serializedVersion: 2
    m_AdditiveReferencePoseClip: {fileID: 0}
    m_AdditiveReferencePoseTime: 0
    m_StartTime: 0
    m_StopTime: 0.32
    m_OrientationOffsetY: 0
    m_Level: 0
    m_CycleOffset: 0
    m_HasAdditiveReferencePose: 0
    m_LoopTime: 1
    m_LoopBlend: 0
    m_LoopBlendOrientation: 0
    m_LoopBlendPositionY: 0
    m_LoopBlendPositionXZ: 0
    m_KeepOriginalOrientation: 0
    m_KeepOriginalPositionY: 1
    m_KeepOriginalPositionXZ: 0
    m_HeightFromFeet: 0
    m_Mirror: 0
  m_EditorCurves: []
  m_EulerEditorCurves: []
  m_HasGenericRootTransform: 0
  m_HasMotionFloatCurves: 0
  m_Events: []
